many	=
much	=
rate[d]*	=
little[r]*	<
small[er]*	<
short[er]*	<
cheap[er]*	<
inexpensive	<
costl[iery]*	>
large[r]*	<
big[ger]*	<
less[er]*	<
more	>
above	>
great[er]*	>
betwixt	<>
between	<>
range[sd]*	<>
equal	=
match[esd]*	=
compeer	=
be	=
close	=
equate	=
correspond	=
fit	=
check	=
agree	=
beneath	<
below	<
nether	<
under	<
inside	<
interior	<
within	<
low[er]*	<
emit	<
high[er]*	>
over	>
beyond	>
only	<
up to	<
worth	=
till	<
budget	=
cost	=