{
    "name": "PROJECT_NAME",
    "version": "",
    "description": "PROJECT_DESCRIPTION",
    "author":"Contributor1 <contributor1@abzooba.com>",
    "contributors": [
      
    ],
    "scripts": {
      "test": "",
      "start": "",
      "stop": "",
      "status": "",
      "bot-exp": "node project_name.js --conf exp >> logs/file_new.log 2>&1 &",
      "bot-prod": "node project_name.js --conf prod >> logs/file_new.log 2>&1 &"
    },
    "repository": {
      "type": "git",
      "url": "git+https://bitbucket.org/rndabzooba/project_name.git"
    },
    "license": "",
    "dependencies": {
     
    },
    "devDependencies": {
    },
    "homepage": "",
    "main": "Forever.js",
    "directories": {
      "app": "app",
      "test": "test"
    }
  }